<svg width="11" height="6" viewBox="0 0 11 6" fill="none" xmlns="http://www.w3.org/2000/svg">
<path fill-rule="evenodd" clip-rule="evenodd" d="M2.59106 -0.00012207H0.590576V1.99973H2.59106V3.99985H4.59056V5.99969H6.59104V3.99985H8.59104V1.99973H10.5905V-0.00012207H8.59104V1.99973H6.59104V3.99985H4.59056V1.99973H2.59106V-0.00012207Z" fill="#C4C4C4"/>
</svg>
